…
<br>

------------------------------------------------------------------------

Show objects in the highest circle:

``` r
hc[[2]]
```

    ## # A tibble: 208 × 13
    ##    street        number letter suffix postal_code city    lon   lat amount    ix
    ##    <chr>          <int> <chr>  <chr>  <chr>       <chr> <dbl> <dbl>  <dbl> <int>
    ##  1 Elzenlaan        135 <NA>   <NA>   9741ND      Gron…  6.55  53.2    135 20449
    ##  2 Elzenlaan        139 <NA>   <NA>   9741ND      Gron…  6.55  53.2    139 23229
    ##  3 Elzenlaan         70 <NA>   <NA>   9741NG      Gron…  6.55  53.2     70   585
    ##  4 Elzenlaan         68 <NA>   <NA>   9741NG      Gron…  6.55  53.2     68 14677
    ##  5 Duindoornstr…      1 <NA>   <NA>   9741NM      Gron…  6.55  53.2     12 16828
    ##  6 Duindoornstr…     17 <NA>   <NA>   9741NM      Gron…  6.55  53.2     17 12829
    ##  7 Duindoornstr…     15 <NA>   <NA>   9741NM      Gron…  6.55  53.2     15 16004
    ##  8 Duindoornstr…     21 <NA>   <NA>   9741NM      Gron…  6.55  53.2     21 11748
    ##  9 Duindoornstr…     13 <NA>   <NA>   9741NM      Gron…  6.55  53.2     13  2006
    ## 10 Ranonkelstra…     38 <NA>   <NA>   9741LT      Gron…  6.55  53.2     38 19696
    ## # ℹ 198 more rows
    ## # ℹ 3 more variables: distance_m <dbl>, id <int>, conc <dbl>
…
